{
  "event": [
    {
      "id": "1",
      "eventname": "Dikpus",
      "startdate": "20200713",
      "starttime": "-1",
      "enddate": "20200722",
      "endtime": "-1"
    },
    {
      "id": "2",
      "eventname": "Rapat KTOM",
      "startdate": "20200710",
      "starttime": "2200",
      "enddate": "20200710",
      "endtime": "2300"
    },
    {
      "id": "3",
      "eventname": "Daftar ulang semester 3",
      "startdate": "20200810",
      "starttime": "-1",
      "enddate": "20200814",
      "endtime": "-1"
    }
  ],
  "task": [
    {
      "id": "4",
      "taskname": "Final Project RN",
      "enddate": "20200711",
      "endtime": "2000"
    },
    {
      "id": "5",
      "taskname": "Abstrak Permutasi",
      "enddate": "20200718",
      "endtime": "2359"
    },
    {
      "id": "6",
      "taskname": "Pekanan HSI",
      "enddate": "20200713",
      "endtime": "1600"
    }
  ]
}
